-------------------------------------------------------------------------------
Test set: com.arisa.week5.AppTest
-------------------------------------------------------------------------------
Tests run: 4, Failures: 0, Errors: 0, Skipped: 0, Time elapsed: 0.034 s - in com.arisa.week5.AppTest
